{
	"credit": "Made with Blockbench",
	"textures": {
		"0": "fennifith:custom/witchhat/hat",
		"particle": "fennifith:custom/witchhat/hat"
	},
	"elements": [
		{
			"name": "base",
			"from": [2, 0, 15],
			"to": [14, 1, 16],
			"faces": {
				"north": {"uv": [9, 0, 9.5, 0.5], "texture": "#0"},
				"east": {"uv": [9, 0, 9.5, 0.5], "texture": "#0"},
				"south": {"uv": [9, 0, 15, 0.5], "texture": "#0"},
				"west": {"uv": [9, 0, 9.5, 0.5], "texture": "#0"},
				"up": {"uv": [9, 0, 15, 0.5], "texture": "#0"},
				"down": {"uv": [9, 0, 15, 0.5], "texture": "#0"}
			}
		},
		{
			"name": "base",
			"from": [1, 0, 14],
			"to": [15, 1, 15],
			"faces": {
				"north": {"uv": [9, 0, 9.5, 0.5], "texture": "#0"},
				"east": {"uv": [9, 0, 9.5, 0.5], "texture": "#0"},
				"south": {"uv": [9, 0, 9.5, 0.5], "texture": "#0"},
				"west": {"uv": [9, 0, 9.5, 0.5], "texture": "#0"},
				"up": {"uv": [8.5, 0.5, 15.5, 1], "texture": "#0"},
				"down": {"uv": [8.5, 0.5, 15.5, 1], "texture": "#0"}
			}
		},
		{
			"name": "base",
			"from": [2, 0, 0],
			"to": [14, 1, 1],
			"faces": {
				"north": {"uv": [9, 0, 15, 0.5], "texture": "#0"},
				"east": {"uv": [9, 0, 9.5, 0.5], "texture": "#0"},
				"south": {"uv": [9, 0, 9.5, 0.5], "texture": "#0"},
				"west": {"uv": [9, 0, 9.5, 0.5], "texture": "#0"},
				"up": {"uv": [9, 0, 15, 0.5], "texture": "#0"},
				"down": {"uv": [9, 0, 15, 0.5], "texture": "#0"}
			}
		},
		{
			"name": "base",
			"from": [1, 0, 1],
			"to": [15, 1, 2],
			"faces": {
				"north": {"uv": [9, 0, 9.5, 0.5], "texture": "#0"},
				"east": {"uv": [9, 0, 9.5, 0.5], "texture": "#0"},
				"south": {"uv": [9, 0, 9.5, 0.5], "texture": "#0"},
				"west": {"uv": [9, 0, 9.5, 0.5], "texture": "#0"},
				"up": {"uv": [8.5, 0.5, 15.5, 1], "texture": "#0"},
				"down": {"uv": [8.5, 0.5, 15.5, 1], "texture": "#0"}
			}
		},
		{
			"name": "base",
			"from": [0, 0, 2],
			"to": [16, 1, 14],
			"faces": {
				"north": {"uv": [9, 0, 9.5, 0.5], "texture": "#0"},
				"east": {"uv": [9, 0, 15, 0.5], "texture": "#0"},
				"south": {"uv": [9, 0, 9.5, 0.5], "texture": "#0"},
				"west": {"uv": [9, 0, 15, 0.5], "texture": "#0"},
				"up": {"uv": [8, 1, 16, 7], "texture": "#0"},
				"down": {"uv": [8, 1, 16, 7], "texture": "#0"}
			}
		},
		{
			"name": "hat1",
			"from": [4, 1, 4],
			"to": [12, 7, 12],
			"faces": {
				"north": {"uv": [8, 10, 16, 16], "texture": "#0"},
				"east": {"uv": [0, 10, 8, 16], "texture": "#0"},
				"south": {"uv": [0, 10, 8, 16], "texture": "#0"},
				"west": {"uv": [0, 10, 8, 16], "texture": "#0"},
				"up": {"uv": [0, 10, 2, 12], "texture": "#0"},
				"down": {"uv": [9, 0, 9.5, 0.5], "texture": "#0"}
			}
		},
		{
			"name": "hat2",
			"from": [5, 8, 2],
			"to": [11, 14, 8],
			"rotation": {"angle": 22.5, "axis": "x", "origin": [0, 0, 0]},
			"faces": {
				"north": {"uv": [0, 8.5, 6, 14.5], "texture": "#0"},
				"east": {"uv": [0, 8.5, 6, 14.5], "texture": "#0"},
				"south": {"uv": [0, 8.5, 6, 14.5], "texture": "#0"},
				"west": {"uv": [0, 8.5, 6, 14.5], "texture": "#0"},
				"up": {"uv": [0, 10, 2, 12], "texture": "#0"},
				"down": {"uv": [0, 0, 0, 0], "texture": "#0"}
			}
		},
		{
			"name": "hat3",
			"from": [6, 14, -3],
			"to": [10, 20, 1],
			"rotation": {"angle": 45, "axis": "x", "origin": [0, 0, 0]},
			"faces": {
				"north": {"uv": [0, 8.5, 4, 14.5], "texture": "#0"},
				"east": {"uv": [0, 8.5, 4, 14.5], "texture": "#0"},
				"south": {"uv": [0, 8.5, 4, 14.5], "texture": "#0"},
				"west": {"uv": [0, 8.5, 4, 14.5], "texture": "#0"},
				"up": {"uv": [0, 8.5, 4, 12.5], "texture": "#0"},
				"down": {"uv": [0, 0, 0, 0], "texture": "#0"}
			}
		},
		{
			"name": "hat4",
			"from": [7, 8, 17],
			"to": [9, 10, 23],
			"rotation": {"angle": -22.5, "axis": "x", "origin": [0, 0, 0]},
			"faces": {
				"north": {"uv": [0, 0, 0, 0], "rotation": 180, "texture": "#0"},
				"east": {"uv": [0, 8.5, 2, 14.5], "rotation": 270, "texture": "#0"},
				"south": {"uv": [0, 8.5, 2, 10.5], "texture": "#0"},
				"west": {"uv": [0, 8.5, 2, 14.5], "rotation": 90, "texture": "#0"},
				"up": {"uv": [0, 8.5, 2, 14.5], "rotation": 180, "texture": "#0"},
				"down": {"uv": [0, 8.5, 2, 14.5], "texture": "#0"}
			}
		},
		{
			"name": "ornament",
			"from": [8, 11, 16],
			"to": [8, 16, 21],
			"faces": {
				"north": {"uv": [0, 0, 0, 5], "texture": "#missing"},
				"east": {"uv": [3.5, 0, 7, 3.5], "texture": "#0"},
				"south": {"uv": [0, 0, 0, 5], "texture": "#missing"},
				"west": {"uv": [0, 0, 3.5, 3.5], "texture": "#0"},
				"up": {"uv": [0, 0, 0, 5], "texture": "#missing"},
				"down": {"uv": [0, 0, 0, 5], "texture": "#missing"}
			}
		}
	],
	"display": {
		"thirdperson_righthand": {
			"translation": [0, -1, -2],
			"scale": [0.5, 0.5, 0.5]
		},
		"thirdperson_lefthand": {
			"translation": [0, -1, -2],
			"scale": [0.5, 0.5, 0.5]
		},
		"firstperson_righthand": {
			"rotation": [0, -15, 0],
			"translation": [0, 3.5, 0],
			"scale": [0.5, 0.5, 0.5]
		},
		"firstperson_lefthand": {
			"rotation": [0, -15, 0],
			"translation": [0, 3.5, 0],
			"scale": [0.5, 0.5, 0.5]
		},
		"ground": {
			"translation": [0, 7, 0],
			"scale": [0.5, 0.5, 0.5]
		},
		"gui": {
			"rotation": [0, 90, 0],
			"translation": [-1.75, -0.75, 0],
			"scale": [0.7, 0.7, 0.7]
		},
		"head": {
			"rotation": [0, -28, 0],
			"translation": [0, 18, 0],
			"scale": [1.5, 1.5, 1.5]
		},
		"fixed": {
			"rotation": [0, -90, 0],
			"translation": [0, 0, -0.5],
			"scale": [0.7, 0.7, 0.7]
		}
	}
}